Functions
…
## 
## Attaching package: 'dplyr'

## The following objects are masked from 'package:stats':
## 
##     filter, lag

## The following objects are masked from 'package:base':
## 
##     intersect, setdiff, setequal, union

# this command outputs all CONV loans
df_all %>% filter(TYPE == 'CONV')

## # A tibble: 127 x 5
##    ACCT_NBR ORIG_BAL PRIN_BAL STATE TYPE 
##       <dbl>    <dbl>    <dbl> <chr> <chr>
##  1      100   382300  188239. OK    CONV 
##  2    20002     2700    1080  PA    CONV 
##  3   361041    66200   53161. VA    CONV 
##  4   362471    14400   12696. MO    CONV 
##  5   366186    50000   37652. AR    CONV 
##  6   391004   180800  147098. TX    CONV 
##  7   392000    45306   34048. TX    CONV 
##  8   399070   208000  180975. MD    CONV 
##  9   399930   166500  139714. IL    CONV 
## 10   400329   417000  429281. IL    CONV 
## # ... with 117 more rows
…
This is a pretty good template to start working with for the other loan types. Ill go ahead and build those out now. I need to know all the different types there are in this data so that I dont forget to plot any of them.

unique(df_all)

## # A tibble: 250 x 5
##    ACCT_NBR ORIG_BAL PRIN_BAL STATE TYPE 
##       <dbl>    <dbl>    <dbl> <chr> <chr>
##  1      100   382300  188239. OK    CONV 
##  2    20002     2700    1080  PA    CONV 
##  3   361041    66200   53161. VA    CONV 
##  4   362471    14400   12696. MO    CONV 
##  5   366186    50000   37652. AR    CONV 
##  6   380003   116725   95723. TX    FHA  
##  7   391004   180800  147098. TX    CONV 
##  8   392000    45306   34048. TX    CONV 
##  9   399070   208000  180975. MD    CONV 
## 10   399427    95918   77737. OK    USDA 
## # ... with 240 more rows
…
This development process wouldve been so much simpler if we had made a function for it at the beginning. -Every single new developer

Now lets rewind that whole process and use functions instead. We can compare the amount of time it takes to do both.

(start clock)

Lets write out the code that we would need to make one of the graphs we want. Well use the conventional type first. We want to filter down to just conventional loans, so well need to use %>% and filter() from dplyr. Then we want to make a plot, so we need to use ggplot() from ggplot2.

library(ggplot2)
library(dplyr)

# this command outputs all CONV loans
df_all %>% filter(TYPE == 'CONV')

## # A tibble: 127 x 5
##    ACCT_NBR ORIG_BAL PRIN_BAL STATE TYPE 
##       <dbl>    <dbl>    <dbl> <chr> <chr>
##  1      100   382300  188239. OK    CONV 
##  2    20002     2700    1080  PA    CONV 
##  3   361041    66200   53161. VA    CONV 
##  4   362471    14400   12696. MO    CONV 
##  5   366186    50000   37652. AR    CONV 
##  6   391004   180800  147098. TX    CONV 
##  7   392000    45306   34048. TX    CONV 
##  8   399070   208000  180975. MD    CONV 
##  9   399930   166500  139714. IL    CONV 
## 10   400329   417000  429281. IL    CONV 
## # ... with 117 more rows
…
