Functions
…
## 
## Attaching package: 'dplyr'

## The following objects are masked from 'package:stats':
## 
##     filter, lag

## The following objects are masked from 'package:base':
## 
##     intersect, setdiff, setequal, union

# this command outputs all CONV loans
df_all %>% filter(TYPE == 'CONV')

## # A tibble: 127 x 5
##    ACCT_NBR ORIG_BAL PRIN_BAL STATE TYPE 
##       <dbl>    <dbl>    <dbl> <chr> <chr>
##  1      100   382300  188239. OK    CONV 
##  2    20002     2700    1080  PA    CONV 
##  3   361041    66200   53161. VA    CONV 
##  4   362471    14400   12696. MO    CONV 
##  5   366186    50000   37652. AR    CONV 
##  6   391004   180800  147098. TX    CONV 
##  7   392000    45306   34048. TX    CONV 
##  8   399070   208000  180975. MD    CONV 
##  9   399930   166500  139714. IL    CONV 
## 10   400329   417000  429281. IL    CONV 
## # ... with 117 more rows
…
Actual Quote

This development process wouldve been so much simpler if we had made a function for it at the beginning. -Every single new developer

Rewind and use functions instead.

Start developing . . . .

library(ggplot2)
library(dplyr)

# this command outputs all CONV loans
df_all %>% filter(TYPE == 'CONV')

## # A tibble: 127 x 5
##    ACCT_NBR ORIG_BAL PRIN_BAL STATE TYPE 
##       <dbl>    <dbl>    <dbl> <chr> <chr>
##  1      100   382300  188239. OK    CONV 
##  2    20002     2700    1080  PA    CONV 
##  3   361041    66200   53161. VA    CONV 
##  4   362471    14400   12696. MO    CONV 
##  5   366186    50000   37652. AR    CONV 
##  6   391004   180800  147098. TX    CONV 
##  7   392000    45306   34048. TX    CONV 
##  8   399070   208000  180975. MD    CONV 
##  9   399930   166500  139714. IL    CONV 
## 10   400329   417000  429281. IL    CONV 
## # ... with 117 more rows
…
